{
    "carddeck":[
        {"cardText":"HOW WILL MY SEX LIFE BE DIFFERENT FROM TODAY IN 10 YEARS?", "tags":["tag"]},
        {"cardText":"WHAT ALWAYS SEEMS TO COME UP WHEN MY FAMILY IS TRYING TO EMBARRASS ME?", "tags":["tag"]},
        {"cardText":"WHAT IS MY “SIGNATURE MOVE” IN THE BEDROOM?", "tags":["tag"]},
        {"cardText":"WHAT DO MOST PEOPLE FIND ATTRACTIVE THAT I DON’T?", "tags":["tag"]},
        {"cardText":"IF MASTURBATION REQUIRED MUSIC WHAT WOULD BE MY GO TO SONG?", "tags":["tag"]},
		{"cardText":"WHAT IS THE WEIRDEST THING THAT HAS POPPED INTO MY HEAD DURING SEX?", "tags":["tag"]},
		{"cardText":"WHAT SONG DO I WANT PLAYED AT MY FUNERAL?", "tags":["tag"]},
		{"cardText":"WHAT IS AN INAPPROPRIATE QUESTION THAT I’VE ALWAYS WANTED TO ASK?", "tags":["tag"]},
		{"cardText":"WHAT IS MY PORNOGRAPHY PET PEEVE?", "tags":["tag"]},
		{"cardText":"WHAT WOULD I GIVE UP MY FIRST BORN FOR?", "tags":["tag"]},
		{"cardText":"WHAT’S THE BEST KEPT SECRET AT MY WORKPLACE?", "tags":["tag"]},
		{"cardText":"IF I COULD SMOKE A JOINT WITH ANYONE DEAD OR ALIVE WHO WOULD I CHOOSE?", "tags":["tag"]},
		{"cardText":"WHICH TWO PEOPLE WOULD I BE MOST EXCITED TO STAR IN A PORN VIDEO TOGETHER?", "tags":["tag"]},
		{"cardText":"WHAT NON-SEXUAL THING AM I IN THE CLOSET ABOUT?", "tags":["tag"]},
		{"cardText":"WHAT IS THE WEIRDEST THING I’VE EVER PAID FOR ON MY PHONE?", "tags":["tag"]},
		{"cardText":"WHAT WILL SATAN ADD TO HELL IN PREPARATION FOR MY ARRIVAL?", "tags":["tag"]},
		{"cardText":"WHAT IS THE CRAZIEST THING I’D DO IN A GAME OF “TRUTH OR DARE”?", "tags":["tag"]},
		{"cardText":"WHAT IS A CONTROVERSIAL BELIEF OF MINE?", "tags":["tag"]},
		{"cardText":"WHAT’S MY FETISH THAT ISN’T ALL THAT WEIRD?", "tags":["tag"]},
		{"cardText":"WHAT IS THE ONE THING I HOPE MY PARENTS NEVER FIND OUT ABOUT?", "tags":["tag"]},
		{"cardText":"WHAT’S MY “TEQUILA STORY?”", "tags":["tag"]},
		{"cardText":"IF MY SEXUALITY WAS AN ANIMAL WHICH WOULD IT BE?", "tags":["tag"]},
		{"cardText":"WHAT IS THE BIGGEST PERK OF BEING MY SIGNIFICANT OTHER?", "tags":["tag"]},
		{"cardText":"IF I COULD GIVE MY PARTNER ONE PIECE OF ADVICE KNOWING THAT THEY WOULDN’T BE OFFENDED WHAT WOULD IT BE?", "tags":["tag"]},
		{"cardText":"WHAT IS THE WEIRDEST THING I’VE EVER CAUGHT SOMEONE IN THE ROOM DOING?", "tags":["tag"]},
		{"cardText":"WHAT DO I REFUSE TO DO UNLESS I’M DRUNK?", "tags":["tag"]},
		{"cardText":"WHAT WOULD I SACRIFICE MY LIFE FOR?", "tags":["tag"]},
		{"cardText":"WHAT IS SOMETHING I DISLIKE ABOUT SEX?", "tags":["tag"]},
		{"cardText":"WHAT IS SOMETHING THAT IMMEDIATELY TURNS ME OFF?", "tags":["tag"]},
		{"cardText":"WHAT IS THE MOST EXPENSIVE THING I’VE STOLEN?", "tags":["tag"]},
		{"cardText":"WHAT IS THE MOST OFFENSIVE QUESTION SOMEONE COULD ASK ME?", "tags":["tag"]},
		{"cardText":"WHERE IS THE MOST OUTLANDISH PLACE I’VE HAD SEX?", "tags":["tag"]},
		{"cardText":"WHAT IS THE STRANGEST THING I’LL ADMIT TO TURNING ME ON?", "tags":["tag"]},
		{"cardText":"WHAT IS THE WORST DRUG RELATED EXPERIENCE I’VE EVER HAD?", "tags":["tag"]},
		{"cardText":"WHAT IS ON MY SEXUAL BUCKET LIST?", "tags":["tag"]},
		{"cardText":"I RECENTLY HAD A SEX DREAM INVOLVING __________.", "tags":["tag"]},
		{"cardText":"WHAT WOULD I TRADE MY SIGNIFICANT OTHER FOR?", "tags":["tag"]},
		{"cardText":"WHAT WOULD I LIKE TO CHANGE ABOUT THE SOCIETY WE LIVE IN?", "tags":["tag"]},
		{"cardText":"WHAT WOULD KILL 90% OF PEOPLE, BUT NOT ME?", "tags":["tag"]},
		{"cardText":"WHAT IS THE HARDEST THING I’VE EVER HAD TO SAY “NO” TO?", "tags":["tag"]},
		{"cardText":"WHAT SEX POSITION DO I ENJOY THE MOST?", "tags":["tag"]},
		{"cardText":"I’M HORNY AND READY TO GO. WHAT WOULD BE THE MOST EFFECTIVE WAY FOR MY PARTNER TO KILL THE MOOD?", "tags":["tag"]},
		{"cardText":"WHAT IS A STEREOTYPE THAT I BELIEVE TO BE TRUE?", "tags":["tag"]},
		{"cardText":"WHAT HUMAN EXPERIMENT WOULD I LIKE TO SEE THE RESULTS OF IF ETHICS WEREN’T AN ISSUE?", "tags":["tag"]},
		{"cardText":"HOW WILL I DIE?", "tags":["tag"]},
		{"cardText":"WHAT IS THE MOST RECENT CRIME I’VE COMMITTED?", "tags":["tag"]},
		{"cardText":"WHAT IS THE GROSSEST THING THAT’S EVER BEEN IN MY MOUTH?", "tags":["tag"]},
		{"cardText":"WHAT WILL MY GRAVESTONE SAY?", "tags":["tag"]},
		{"cardText":"WHAT WOULD I WRITE AS MY MOST RECENT EX’S TINDER HEADLINE?", "tags":["tag"]},
		{"cardText":"WHAT IS SOMETHING I LOVE THAT’S TYPICALLY RESERVED FOR THE OPPOSITE SEX?", "tags":["tag"]},
		{"cardText":"WHAT GETS HARDER FOR ME WHEN I’M DRUNK?", "tags":["tag"]},
		{"cardText":"WHAT IS THE MOST UNETHICAL THING I’VE EVER DONE?", "tags":["tag"]},
		{"cardText":"WHAT WOULD I BE MOST ASHAMED OF IF MY INTERNET HISTORY WAS PUBLISHED IN THE PAPER?", "tags":["tag"]},
		{"cardText":"ONE TIME, I RESPONDED TO A POST FOR __________ ON CRAIGSLIST.", "tags":["tag"]},
		{"cardText":"WHAT IS MY SAFE WORD?", "tags":["tag"]},
		{"cardText":"WHAT DO I THINK ABOUT DURING SEX?", "tags":["tag"]},
		{"cardText":"WHAT TYPICALLY SOUNDS BAD TO EVERYONE ELSE BUT SOUNDS AMAZING TO ME?", "tags":["tag"]},
		{"cardText":"WHAT WOULD I BUY WITH A $50 GIFT CARD TO AN ADULT GIFT STORE?", "tags":["tag"]},
		{"cardText":"GOD HATES ME BECAUSE OF THAT ONE TIME I __________.", "tags":["tag"]},
		{"cardText":"WHAT IS MY PORN STAR NAME?", "tags":["tag"]},
		{"cardText":"WHAT DO I TRY NOT TO THINK ABOUT DURING SEX?", "tags":["tag"]},
		{"cardText":"WHAT IS THE WEIRDEST THING I HAVE EVER WALKED IN ON?", "tags":["tag"]},
		{"cardText":"WHAT KEEPS ME UP AT NIGHT?", "tags":["tag"]},
		{"cardText":"WHAT HAS MADE ME QUESTION MY SEXUALITY?", "tags":["tag"]},
		{"cardText":"WHAT IS MY FAVOURITE SEX POSITION?", "tags":["tag"]},
		{"cardText":"WHERE DID I LOSE MY VIRGINITY?", "tags":["tag"]},
		{"cardText":"IN MY OPINION, __________ SHOULD MAKE SOMEONE INELIGIBLE TO REPRODUCE.", "tags":["tag"]},
		{"cardText":"WHAT IS THE MOST DISTURBING SEX DREAM I’VE EVER HAD?", "tags":["tag"]},
		{"cardText":"WHAT WOULD I GET A GOLD MEDAL FOR IN THE BEDROOM?", "tags":["tag"]},
		{"cardText":"WHAT INTERROGATION TECHNIQUE WOULD BREAK ME THE FASTEST?", "tags":["tag"]},
		{"cardText":"WHERE IS THE WEIRDEST PLACE THAT I’VE POOPED?", "tags":["tag"]},
		{"cardText":"WHAT TWO PEOPLE WOULD I LIKE TO HAVE A THREESOME WITH?", "tags":["tag"]},
		{"cardText":"A TYPICAL NIGHT OUT FOR ME INCLUDES MORE __________ THAN __________.", "tags":["tag"]},
		{"cardText":"WHAT WOULD I LIKE TO CHANGE ABOUT MY SEX LIFE?", "tags":["tag"]},
		{"cardText":"WHAT IS THE TITLE OF MY FAVOURITE PORN VIDEO?", "tags":["tag"]},
		{"cardText":"WHAT PROFESSION DO I FIND THE SEXIEST?", "tags":["tag"]},
		{"cardText":"WHAT IS THE WEIRDEST SEXUAL ACT I’VE BEEN ASKED TO DO?", "tags":["tag"]},
		{"cardText":"WHAT IS THE MOST UNUSUAL SITUATION I’VE EVER WOKEN UP TO?", "tags":["tag"]},
		{"cardText":"WHAT DO I SILENTLY JUDGE PEOPLE FOR?", "tags":["tag"]},
		{"cardText":"WHAT FETISH WOULD I BE INTERESTED IN TRYING IF ONLY I WASN’T TOO AFRAID TO ASK MY PARTNER?", "tags":["tag"]},
		{"cardText":"WHAT SONG WOULD BE THE HARDEST FOR ME TO HAVE SEX TO?", "tags":["tag"]},
		{"cardText":"WHAT IS THE MOST ILLEGAL THING I’VE EVER DONE?", "tags":["tag"]},
		{"cardText":"WHAT IS SOMETHING THAT OFFENDS ME?", "tags":["tag"]},
		{"cardText":"WHAT IS THE MOST SEXUALLY ADVENTUROUS THING I’VE EVER DONE?", "tags":["tag"]},
		{"cardText":"WHAT IS THE MOST TERRIBLE THING I DID IN HIGH SCHOOL?", "tags":["tag"]},
		{"cardText":"WHAT DO I WISH WAS SOCIALLY ACCEPTABLE?", "tags":["tag"]},
		{"cardText":"WHERE IS THE LAST PLACE ON EARTH I’D WANT TO HAVE SEX?", "tags":["tag"]},
		{"cardText":"WHAT IS SOMETHING ON THE INTERNET THAT I WISH I’D NEVER SEEN?", "tags":["tag"]},
		{"cardText":"I JUST RELEASED MY FIRST AMATEUR PORN VIDEO. WHAT DID I TITLE IT?", "tags":["tag"]},
		{"cardText":"WHAT IS THE CRAZIEST THING I’VE DONE THAT I DIDN’T REMEMBER DOING?", "tags":["tag"]},
		{"cardText":"I KNOW I’VE HAD ONE TOO MANY DRINKS WHEN I’M __________.", "tags":["tag"]},
		{"cardText":"WHAT IS THE MOST NECESSARY EVIL IN MY LIFE?", "tags":["tag"]},
		{"cardText":"WHAT CAN SOMEONE I’M NOT ATTRACTED TO DO TO TURN ME ON?", "tags":["tag"]},
		{"cardText":"WHAT IS SOMETHING THE OPPOSITE GENDER DOES THAT DISGUSTS ME?", "tags":["tag"]},
		{"cardText":"WHERE IS THE WEIRDEST PLACE I’VE EVER BEEN HIT ON OR HIT ON SOMEONE?", "tags":["tag"]},
		{"cardText":"WHERE IS THE MOST INAPPROPRIATE PLACE I’VE EVER BEEN DRUNK?", "tags":["tag"]},
		{"cardText":"BELIEVE IT OR NOT BUT I’VE SEEN __________ NAKED.", "tags":["tag"]},
		{"cardText":"WHAT IS MY FANTASY?", "tags":["tag"]},
		{"cardText":"WHAT WOULD BE MY SIGNATURE IF I WERE A SERIAL KILLER?", "tags":["tag"]},
		{"cardText":"WHAT INITIALLY MADE ME ATTRACTED TO MY CURRENT OR MOST RECENT SIGNIFICANT OTHER?", "tags":["tag"]},
        {"cardText":"WHAT IS MY MOST SIGNIFICANT CONTRIBUTION TO THIS GROUP?", "tags":["tag"]}
    ]
}